fukui/Main.vcd
$date
	Thu Jul 16 22:16:24 2020
$end
$version
	Icarus Verilog
$end
$timescale
	1s
$end
$scope module Runner $end
$var reg 1 ! CLK $end
$upscope $end
$scope module Runner $end
$var reg 4 " Q1000 [3:0] $end
$upscope $end
$scope module Runner $end
$var reg 4 # Q0100 [3:0] $end
$upscope $end
$scope module Runner $end
$var reg 4 $ Q0010 [3:0] $end
$upscope $end
$scope module Runner $end
$var reg 4 % Q0001 [3:0] $end
$upscope $end
$scope module Runner $end
$var reg 4 & V1000 [3:0] $end
$upscope $end
$scope module Runner $end
$var reg 4 ' V0100 [3:0] $end
$upscope $end
$scope module Runner $end
$var reg 4 ( V0010 [3:0] $end
$upscope $end
$scope module Runner $end
$var reg 4 ) V0001 [3:0] $end
$upscope $end
$scope module Runner $end
$var wire 1 * EQU $end
$upscope $end
$enddefinitions $end
#0
$dumpvars
0*
b100 )
b11 (
b10 '
b1 &
b0 %
b0 $
b0 #
b0 "
0!
$end
#1
b1 %
1!
#2
b10 %
0!
#3
b11 %
1!
#4
b100 %
0!
#5
b101 %
1!
#6
b110 %
0!
#7
b111 %
1!
#8
b1000 %
0!
#9
b1001 %
1!
#10
b1 $
b0 %
0!
#11
b1 %
1!
#12
b10 %
0!
#13
b11 %
1!
#14
b100 %
0!
#15
b101 %
1!
#16
b110 %
0!
#17
b111 %
1!
#18
b1000 %
0!
#19
b1001 %
1!
#20
b10 $
b0 %
0!
#21
b1 %
1!
#22
b10 %
0!
#23
b11 %
1!
#24
b100 %
0!
#25
b101 %
1!
#26
b110 %
0!
#27
b111 %
1!
#28
b1000 %
0!
#29
b1001 %
1!
#30
b11 $
b0 %
0!
#31
b1 %
1!
#32
b10 %
0!
#33
b11 %
1!
#34
b100 %
0!
#35
b101 %
1!
#36
b110 %
0!
#37
b111 %
1!
#38
b1000 %
0!
#39
b1001 %
1!
#40
b100 $
b0 %
0!
#41
b1 %
1!
#42
b10 %
0!
#43
b11 %
1!
#44
b100 %
0!
#45
b101 %
1!
#46
b110 %
0!
#47
b111 %
1!
#48
b1000 %
0!
#49
b1001 %
1!
#50
b101 $
b0 %
0!
#51
b1 %
1!
#52
b10 %
0!
#53
b11 %
1!
#54
b100 %
0!
#55
b101 %
1!
#56
b110 %
0!
#57
b111 %
1!
#58
b1000 %
0!
#59
b1001 %
1!
#60
b110 $
b0 %
0!
#61
b1 %
1!
#62
b10 %
0!
#63
b11 %
1!
#64
b100 %
0!
#65
b101 %
1!
#66
b110 %
0!
#67
b111 %
1!
#68
b1000 %
0!
#69
b1001 %
1!
#70
b111 $
b0 %
0!
#71
b1 %
1!
#72
b10 %
0!
#73
b11 %
1!
#74
b100 %
0!
#75
b101 %
1!
#76
b110 %
0!
#77
b111 %
1!
#78
b1000 %
0!
#79
b1001 %
1!
#80
b1000 $
b0 %
0!
#81
b1 %
1!
#82
b10 %
0!
#83
b11 %
1!
#84
b100 %
0!
#85
b101 %
1!
#86
b110 %
0!
#87
b111 %
1!
#88
b1000 %
0!
#89
b1001 %
1!
#90
b1001 $
b0 %
0!
#91
b1 %
1!
#92
b10 %
0!
#93
b11 %
1!
#94
b100 %
0!
#95
b101 %
1!
#96
b110 %
0!
#97
b111 %
1!
#98
b1000 %
0!
#99
b1001 %
1!
#100
b1 #
b0 $
b0 %
0!
#101
b1 %
1!
#102
b10 %
0!
#103
b11 %
1!
#104
b100 %
0!
#105
b101 %
1!
#106
b110 %
0!
#107
b111 %
1!
#108
b1000 %
0!
#109
b1001 %
1!
#110
b1 $
b0 %
0!
#111
b1 %
1!
#112
b10 %
0!
#113
b11 %
1!
#114
b100 %
0!
#115
b101 %
1!
#116
b110 %
0!
#117
b111 %
1!
#118
b1000 %
0!
#119
b1001 %
1!
#120
b10 $
b0 %
0!
#121
b1 %
1!
#122
b10 %
0!
#123
b11 %
1!
#124
b100 %
0!
#125
b101 %
1!
#126
b110 %
0!
#127
b111 %
1!
#128
b1000 %
0!
#129
b1001 %
1!
#130
b11 $
b0 %
0!
#131
b1 %
1!
#132
b10 %
0!
#133
b11 %
1!
#134
b100 %
0!
#135
b101 %
1!
#136
b110 %
0!
#137
b111 %
1!
#138
b1000 %
0!
#139
b1001 %
1!
#140
b100 $
b0 %
0!
#141
b1 %
1!
#142
b10 %
0!
#143
b11 %
1!
#144
b100 %
0!
#145
b101 %
1!
#146
b110 %
0!
#147
b111 %
1!
#148
b1000 %
0!
#149
b1001 %
1!
#150
b101 $
b0 %
0!
#151
b1 %
1!
#152
b10 %
0!
#153
b11 %
1!
#154
b100 %
0!
#155
b101 %
1!
#156
b110 %
0!
#157
b111 %
1!
#158
b1000 %
0!
#159
b1001 %
1!
#160
b110 $
b0 %
0!
#161
b1 %
1!
#162
b10 %
0!
#163
b11 %
1!
#164
b100 %
0!
#165
b101 %
1!
#166
b110 %
0!
#167
b111 %
1!
#168
b1000 %
0!
#169
b1001 %
1!
#170
b111 $
b0 %
0!
#171
b1 %
1!
#172
b10 %
0!
#173
b11 %
1!
#174
b100 %
0!
#175
b101 %
1!
#176
b110 %
0!
#177
b111 %
1!
#178
b1000 %
0!
#179
b1001 %
1!
#180
b1000 $
b0 %
0!
#181
b1 %
1!
#182
b10 %
0!
#183
b11 %
1!
#184
b100 %
0!
#185
b101 %
1!
#186
b110 %
0!
#187
b111 %
1!
#188
b1000 %
0!
#189
b1001 %
1!
#190
b1001 $
b0 %
0!
#191
b1 %
1!
#192
b10 %
0!
#193
b11 %
1!
#194
b100 %
0!
#195
b101 %
1!
#196
b110 %
0!
#197
b111 %
1!
#198
b1000 %
0!
#199
b1001 %
1!
#200
b10 #
b0 $
b0 %
0!
#201
b1 %
1!
#202
b10 %
0!
#203
b11 %
1!
#204
b100 %
0!
#205
b101 %
1!
#206
b110 %
0!
#207
b111 %
1!
#208
b1000 %
0!
#209
b1001 %
1!
#210
b1 $
b0 %
0!
#211
b1 %
1!
#212
b10 %
0!
#213
b11 %
1!
#214
b100 %
0!
#215
b101 %
1!
#216
b110 %
0!
#217
b111 %
1!
#218
b1000 %
0!
#219
b1001 %
1!
#220
b10 $
b0 %
0!
#221
b1 %
1!
#222
b10 %
0!
#223
b11 %
1!
#224
b100 %
0!
#225
b101 %
1!
#226
b110 %
0!
#227
b111 %
1!
#228
b1000 %
0!
#229
b1001 %
1!
#230
b11 $
b0 %
0!
#231
b1 %
1!
#232
b10 %
0!
#233
b11 %
1!
#234
b100 %
0!
#235
b101 %
1!
#236
b110 %
0!
#237
b111 %
1!
#238
b1000 %
0!
#239
b1001 %
1!
#240
b100 $
b0 %
0!
#241
b1 %
1!
#242
b10 %
0!
#243
b11 %
1!
#244
b100 %
0!
#245
b101 %
1!
#246
b110 %
0!
#247
b111 %
1!
#248
b1000 %
0!
#249
b1001 %
1!
#250
b101 $
b0 %
0!
#251
b1 %
1!
#252
b10 %
0!
#253
b11 %
1!
#254
b100 %
0!
#255
b101 %
1!
#256
b110 %
0!
#257
b111 %
1!
#258
b1000 %
0!
#259
b1001 %
1!
#260
b110 $
b0 %
0!
#261
b1 %
1!
#262
b10 %
0!
#263
b11 %
1!
#264
b100 %
0!
#265
b101 %
1!
#266
b110 %
0!
#267
b111 %
1!
#268
b1000 %
0!
#269
b1001 %
1!
#270
b111 $
b0 %
0!
#271
b1 %
1!
#272
b10 %
0!
#273
b11 %
1!
#274
b100 %
0!
#275
b101 %
1!
#276
b110 %
0!
#277
b111 %
1!
#278
b1000 %
0!
#279
b1001 %
1!
#280
b1000 $
b0 %
0!
#281
b1 %
1!
#282
b10 %
0!
#283
b11 %
1!
#284
b100 %
0!
#285
b101 %
1!
#286
b110 %
0!
#287
b111 %
1!
#288
b1000 %
0!
#289
b1001 %
1!
#290
b1001 $
b0 %
0!
#291
b1 %
1!
#292
b10 %
0!
#293
b11 %
1!
#294
b100 %
0!
#295
b101 %
1!
#296
b110 %
0!
#297
b111 %
1!
#298
b1000 %
0!
#299
b1001 %
1!
#300
b11 #
b0 $
b0 %
0!
#301
b1 %
1!
#302
b10 %
0!
#303
b11 %
1!
#304
b100 %
0!
#305
b101 %
1!
#306
b110 %
0!
#307
b111 %
1!
#308
b1000 %
0!
#309
b1001 %
1!
#310
b1 $
b0 %
0!
#311
b1 %
1!
#312
b10 %
0!
#313
b11 %
1!
#314
b100 %
0!
#315
b101 %
1!
#316
b110 %
0!
#317
b111 %
1!
#318
b1000 %
0!
#319
b1001 %
1!
#320
b10 $
b0 %
0!
#321
b1 %
1!
#322
b10 %
0!
#323
b11 %
1!
#324
b100 %
0!
#325
b101 %
1!
#326
b110 %
0!
#327
b111 %
1!
#328
b1000 %
0!
#329
b1001 %
1!
#330
b11 $
b0 %
0!
#331
b1 %
1!
#332
b10 %
0!
#333
b11 %
1!
#334
b100 %
0!
#335
b101 %
1!
#336
b110 %
0!
#337
b111 %
1!
#338
b1000 %
0!
#339
b1001 %
1!
#340
b100 $
b0 %
0!
#341
b1 %
1!
#342
b10 %
0!
#343
b11 %
1!
#344
b100 %
0!
#345
b101 %
1!
#346
b110 %
0!
#347
b111 %
1!
#348
b1000 %
0!
#349
b1001 %
1!
#350
b101 $
b0 %
0!
#351
b1 %
1!
#352
b10 %
0!
#353
b11 %
1!
#354
b100 %
0!
#355
b101 %
1!
#356
b110 %
0!
#357
b111 %
1!
#358
b1000 %
0!
#359
b1001 %
1!
#360
b110 $
b0 %
0!
#361
b1 %
1!
#362
b10 %
0!
#363
b11 %
1!
#364
b100 %
0!
#365
b101 %
1!
#366
b110 %
0!
#367
b111 %
1!
#368
b1000 %
0!
#369
b1001 %
1!
#370
b111 $
b0 %
0!
#371
b1 %
1!
#372
b10 %
0!
#373
b11 %
1!
#374
b100 %
0!
#375
b101 %
1!
#376
b110 %
0!
#377
b111 %
1!
#378
b1000 %
0!
#379
b1001 %
1!
#380
b1000 $
b0 %
0!
#381
b1 %
1!
#382
b10 %
0!
#383
b11 %
1!
#384
b100 %
0!
#385
b101 %
1!
#386
b110 %
0!
#387
b111 %
1!
#388
b1000 %
0!
#389
b1001 %
1!
#390
b1001 $
b0 %
0!
#391
b1 %
1!
#392
b10 %
0!
#393
b11 %
1!
#394
b100 %
0!
#395
b101 %
1!
#396
b110 %
0!
#397
b111 %
1!
#398
b1000 %
0!
#399
b1001 %
1!
#400
b100 #
b0 $
b0 %
0!
#401
b1 %
1!
#402
b10 %
0!
#403
b11 %
1!
#404
b100 %
0!
#405
b101 %
1!
#406
b110 %
0!
#407
b111 %
1!
#408
b1000 %
0!
#409
b1001 %
1!
#410
b1 $
b0 %
0!
#411
b1 %
1!
#412
b10 %
0!
#413
b11 %
1!
#414
b100 %
0!
#415
b101 %
1!
#416
b110 %
0!
#417
b111 %
1!
#418
b1000 %
0!
#419
b1001 %
1!
#420
b10 $
b0 %
0!
#421
b1 %
1!
#422
b10 %
0!
#423
b11 %
1!
#424
b100 %
0!
#425
b101 %
1!
#426
b110 %
0!
#427
b111 %
1!
#428
b1000 %
0!
#429
b1001 %
1!
#430
b11 $
b0 %
0!
#431
b1 %
1!
#432
b10 %
0!
#433
b11 %
1!
#434
b100 %
0!
#435
b101 %
1!
#436
b110 %
0!
#437
b111 %
1!
#438
b1000 %
0!
#439
b1001 %
1!
#440
b100 $
b0 %
0!
#441
b1 %
1!
#442
b10 %
0!
#443
b11 %
1!
#444
b100 %
0!
#445
b101 %
1!
#446
b110 %
0!
#447
b111 %
1!
#448
b1000 %
0!
#449
b1001 %
1!
#450
b101 $
b0 %
0!
#451
b1 %
1!
#452
b10 %
0!
#453
b11 %
1!
#454
b100 %
0!
#455
b101 %
1!
#456
b110 %
0!
#457
b111 %
1!
#458
b1000 %
0!
#459
b1001 %
1!
#460
b110 $
b0 %
0!
#461
b1 %
1!
#462
b10 %
0!
#463
b11 %
1!
#464
b100 %
0!
#465
b101 %
1!
#466
b110 %
0!
#467
b111 %
1!
#468
b1000 %
0!
#469
b1001 %
1!
#470
b111 $
b0 %
0!
#471
b1 %
1!
#472
b10 %
0!
#473
b11 %
1!
#474
b100 %
0!
#475
b101 %
1!
#476
b110 %
0!
#477
b111 %
1!
#478
b1000 %
0!
#479
b1001 %
1!
#480
b1000 $
b0 %
0!
#481
b1 %
1!
#482
b10 %
0!
#483
b11 %
1!
#484
b100 %
0!
#485
b101 %
1!
#486
b110 %
0!
#487
b111 %
1!
#488
b1000 %
0!
#489
b1001 %
1!
#490
b1001 $
b0 %
0!
#491
b1 %
1!
#492
b10 %
0!
#493
b11 %
1!
#494
b100 %
0!
#495
b101 %
1!
#496
b110 %
0!
#497
b111 %
1!
#498
b1000 %
0!
#499
b1001 %
1!
#500
b101 #
b0 $
b0 %
0!
#501
b1 %
1!
#502
b10 %
0!
#503
b11 %
1!
#504
b100 %
0!
#505
b101 %
1!
#506
b110 %
0!
#507
b111 %
1!
#508
b1000 %
0!
#509
b1001 %
1!
#510
b1 $
b0 %
0!
#511
b1 %
1!
#512
b10 %
0!
#513
b11 %
1!
#514
b100 %
0!
#515
b101 %
1!
#516
b110 %
0!
#517
b111 %
1!
#518
b1000 %
0!
#519
b1001 %
1!
#520
b10 $
b0 %
0!
#521
b1 %
1!
#522
b10 %
0!
#523
b11 %
1!
#524
b100 %
0!
#525
b101 %
1!
#526
b110 %
0!
#527
b111 %
1!
#528
b1000 %
0!
#529
b1001 %
1!
#530
b11 $
b0 %
0!
#531
b1 %
1!
#532
b10 %
0!
#533
b11 %
1!
#534
b100 %
0!
#535
b101 %
1!
#536
b110 %
0!
#537
b111 %
1!
#538
b1000 %
0!
#539
b1001 %
1!
#540
b100 $
b0 %
0!
#541
b1 %
1!
#542
b10 %
0!
#543
b11 %
1!
#544
b100 %
0!
#545
b101 %
1!
#546
b110 %
0!
#547
b111 %
1!
#548
b1000 %
0!
#549
b1001 %
1!
#550
b101 $
b0 %
0!
#551
b1 %
1!
#552
b10 %
0!
#553
b11 %
1!
#554
b100 %
0!
#555
b101 %
1!
#556
b110 %
0!
#557
b111 %
1!
#558
b1000 %
0!
#559
b1001 %
1!
#560
b110 $
b0 %
0!
#561
b1 %
1!
#562
b10 %
0!
#563
b11 %
1!
#564
b100 %
0!
#565
b101 %
1!
#566
b110 %
0!
#567
b111 %
1!
#568
b1000 %
0!
#569
b1001 %
1!
#570
b111 $
b0 %
0!
#571
b1 %
1!
#572
b10 %
0!
#573
b11 %
1!
#574
b100 %
0!
#575
b101 %
1!
#576
b110 %
0!
#577
b111 %
1!
#578
b1000 %
0!
#579
b1001 %
1!
#580
b1000 $
b0 %
0!
#581
b1 %
1!
#582
b10 %
0!
#583
b11 %
1!
#584
b100 %
0!
#585
b101 %
1!
#586
b110 %
0!
#587
b111 %
1!
#588
b1000 %
0!
#589
b1001 %
1!
#590
b1001 $
b0 %
0!
#591
b1 %
1!
#592
b10 %
0!
#593
b11 %
1!
#594
b100 %
0!
#595
b101 %
1!
#596
b110 %
0!
#597
b111 %
1!
#598
b1000 %
0!
#599
b1001 %
1!
#600
b110 #
b0 $
b0 %
0!
#601
b1 %
1!
#602
b10 %
0!
#603
b11 %
1!
#604
b100 %
0!
#605
b101 %
1!
#606
b110 %
0!
#607
b111 %
1!
#608
b1000 %
0!
#609
b1001 %
1!
#610
b1 $
b0 %
0!
#611
b1 %
1!
#612
b10 %
0!
#613
b11 %
1!
#614
b100 %
0!
#615
b101 %
1!
#616
b110 %
0!
#617
b111 %
1!
#618
b1000 %
0!
#619
b1001 %
1!
#620
b10 $
b0 %
0!
#621
b1 %
1!
#622
b10 %
0!
#623
b11 %
1!
#624
b100 %
0!
#625
b101 %
1!
#626
b110 %
0!
#627
b111 %
1!
#628
b1000 %
0!
#629
b1001 %
1!
#630
b11 $
b0 %
0!
#631
b1 %
1!
#632
b10 %
0!
#633
b11 %
1!
#634
b100 %
0!
#635
b101 %
1!
#636
b110 %
0!
#637
b111 %
1!
#638
b1000 %
0!
#639
b1001 %
1!
#640
b100 $
b0 %
0!
#641
b1 %
1!
#642
b10 %
0!
#643
b11 %
1!
#644
b100 %
0!
#645
b101 %
1!
#646
b110 %
0!
#647
b111 %
1!
#648
b1000 %
0!
#649
b1001 %
1!
#650
b101 $
b0 %
0!
#651
b1 %
1!
#652
b10 %
0!
#653
b11 %
1!
#654
b100 %
0!
#655
b101 %
1!
#656
b110 %
0!
#657
b111 %
1!
#658
b1000 %
0!
#659
b1001 %
1!
#660
b110 $
b0 %
0!
#661
b1 %
1!
#662
b10 %
0!
#663
b11 %
1!
#664
b100 %
0!
#665
b101 %
1!
#666
b110 %
0!
#667
b111 %
1!
#668
b1000 %
0!
#669
b1001 %
1!
#670
b111 $
b0 %
0!
#671
b1 %
1!
#672
b10 %
0!
#673
b11 %
1!
#674
b100 %
0!
#675
b101 %
1!
#676
b110 %
0!
#677
b111 %
1!
#678
b1000 %
0!
#679
b1001 %
1!
#680
b1000 $
b0 %
0!
#681
b1 %
1!
#682
b10 %
0!
#683
b11 %
1!
#684
b100 %
0!
#685
b101 %
1!
#686
b110 %
0!
#687
b111 %
1!
#688
b1000 %
0!
#689
b1001 %
1!
#690
b1001 $
b0 %
0!
#691
b1 %
1!
#692
b10 %
0!
#693
b11 %
1!
#694
b100 %
0!
#695
b101 %
1!
#696
b110 %
0!
#697
b111 %
1!
#698
b1000 %
0!
#699
b1001 %
1!
#700
b111 #
b0 $
b0 %
0!
#701
b1 %
1!
#702
b10 %
0!
#703
b11 %
1!
#704
b100 %
0!
#705
b101 %
1!
#706
b110 %
0!
#707
b111 %
1!
#708
b1000 %
0!
#709
b1001 %
1!
#710
b1 $
b0 %
0!
#711
b1 %
1!
#712
b10 %
0!
#713
b11 %
1!
#714
b100 %
0!
#715
b101 %
1!
#716
b110 %
0!
#717
b111 %
1!
#718
b1000 %
0!
#719
b1001 %
1!
#720
b10 $
b0 %
0!
#721
b1 %
1!
#722
b10 %
0!
#723
b11 %
1!
#724
b100 %
0!
#725
b101 %
1!
#726
b110 %
0!
#727
b111 %
1!
#728
b1000 %
0!
#729
b1001 %
1!
#730
b11 $
b0 %
0!
#731
b1 %
1!
#732
b10 %
0!
#733
b11 %
1!
#734
b100 %
0!
#735
b101 %
1!
#736
b110 %
0!
#737
b111 %
1!
#738
b1000 %
0!
#739
b1001 %
1!
#740
b100 $
b0 %
0!
#741
b1 %
1!
#742
b10 %
0!
#743
b11 %
1!
#744
b100 %
0!
#745
b101 %
1!
#746
b110 %
0!
#747
b111 %
1!
#748
b1000 %
0!
#749
b1001 %
1!
#750
b101 $
b0 %
0!
#751
b1 %
1!
#752
b10 %
0!
#753
b11 %
1!
#754
b100 %
0!
#755
b101 %
1!
#756
b110 %
0!
#757
b111 %
1!
#758
b1000 %
0!
#759
b1001 %
1!
#760
b110 $
b0 %
0!
#761
b1 %
1!
#762
b10 %
0!
#763
b11 %
1!
#764
b100 %
0!
#765
b101 %
1!
#766
b110 %
0!
#767
b111 %
1!
#768
b1000 %
0!
#769
b1001 %
1!
#770
b111 $
b0 %
0!
#771
b1 %
1!
#772
b10 %
0!
#773
b11 %
1!
#774
b100 %
0!
#775
b101 %
1!
#776
b110 %
0!
#777
b111 %
1!
#778
b1000 %
0!
#779
b1001 %
1!
#780
b1000 $
b0 %
0!
#781
b1 %
1!
#782
b10 %
0!
#783
b11 %
1!
#784
b100 %
0!
#785
b101 %
1!
#786
b110 %
0!
#787
b111 %
1!
#788
b1000 %
0!
#789
b1001 %
1!
#790
b1001 $
b0 %
0!
#791
b1 %
1!
#792
b10 %
0!
#793
b11 %
1!
#794
b100 %
0!
#795
b101 %
1!
#796
b110 %
0!
#797
b111 %
1!
#798
b1000 %
0!
#799
b1001 %
1!
#800
b1000 #
b0 $
b0 %
0!
#801
b1 %
1!
#802
b10 %
0!
#803
b11 %
1!
#804
b100 %
0!
#805
b101 %
1!
#806
b110 %
0!
#807
b111 %
1!
#808
b1000 %
0!
#809
b1001 %
1!
#810
b1 $
b0 %
0!
#811
b1 %
1!
#812
b10 %
0!
#813
b11 %
1!
#814
b100 %
0!
#815
b101 %
1!
#816
b110 %
0!
#817
b111 %
1!
#818
b1000 %
0!
#819
b1001 %
1!
#820
b10 $
b0 %
0!
#821
b1 %
1!
#822
b10 %
0!
#823
b11 %
1!
#824
b100 %
0!
#825
b101 %
1!
#826
b110 %
0!
#827
b111 %
1!
#828
b1000 %
0!
#829
b1001 %
1!
#830
b11 $
b0 %
0!
#831
b1 %
1!
#832
b10 %
0!
#833
b11 %
1!
#834
b100 %
0!
#835
b101 %
1!
#836
b110 %
0!
#837
b111 %
1!
#838
b1000 %
0!
#839
b1001 %
1!
#840
b100 $
b0 %
0!
#841
b1 %
1!
#842
b10 %
0!
#843
b11 %
1!
#844
b100 %
0!
#845
b101 %
1!
#846
b110 %
0!
#847
b111 %
1!
#848
b1000 %
0!
#849
b1001 %
1!
#850
b101 $
b0 %
0!
#851
b1 %
1!
#852
b10 %
0!
#853
b11 %
1!
#854
b100 %
0!
#855
b101 %
1!
#856
b110 %
0!
#857
b111 %
1!
#858
b1000 %
0!
#859
b1001 %
1!
#860
b110 $
b0 %
0!
#861
b1 %
1!
#862
b10 %
0!
#863
b11 %
1!
#864
b100 %
0!
#865
b101 %
1!
#866
b110 %
0!
#867
b111 %
1!
#868
b1000 %
0!
#869
b1001 %
1!
#870
b111 $
b0 %
0!
#871
b1 %
1!
#872
b10 %
0!
#873
b11 %
1!
#874
b100 %
0!
#875
b101 %
1!
#876
b110 %
0!
#877
b111 %
1!
#878
b1000 %
0!
#879
b1001 %
1!
#880
b1000 $
b0 %
0!
#881
b1 %
1!
#882
b10 %
0!
#883
b11 %
1!
#884
b100 %
0!
#885
b101 %
1!
#886
b110 %
0!
#887
b111 %
1!
#888
b1000 %
0!
#889
b1001 %
1!
#890
b1001 $
b0 %
0!
#891
b1 %
1!
#892
b10 %
0!
#893
b11 %
1!
#894
b100 %
0!
#895
b101 %
1!
#896
b110 %
0!
#897
b111 %
1!
#898
b1000 %
0!
#899
b1001 %
1!
#900
b1001 #
b0 $
b0 %
0!
#901
b1 %
1!
#902
b10 %
0!
#903
b11 %
1!
#904
b100 %
0!
#905
b101 %
1!
#906
b110 %
0!
#907
b111 %
1!
#908
b1000 %
0!
#909
b1001 %
1!
#910
b1 $
b0 %
0!
#911
b1 %
1!
#912
b10 %
0!
#913
b11 %
1!
#914
b100 %
0!
#915
b101 %
1!
#916
b110 %
0!
#917
b111 %
1!
#918
b1000 %
0!
#919
b1001 %
1!
#920
b10 $
b0 %
0!
#921
b1 %
1!
#922
b10 %
0!
#923
b11 %
1!
#924
b100 %
0!
#925
b101 %
1!
#926
b110 %
0!
#927
b111 %
1!
#928
b1000 %
0!
#929
b1001 %
1!
#930
b11 $
b0 %
0!
#931
b1 %
1!
#932
b10 %
0!
#933
b11 %
1!
#934
b100 %
0!
#935
b101 %
1!
#936
b110 %
0!
#937
b111 %
1!
#938
b1000 %
0!
#939
b1001 %
1!
#940
b100 $
b0 %
0!
#941
b1 %
1!
#942
b10 %
0!
#943
b11 %
1!
#944
b100 %
0!
#945
b101 %
1!
#946
b110 %
0!
#947
b111 %
1!
#948
b1000 %
0!
#949
b1001 %
1!
#950
b101 $
b0 %
0!
#951
b1 %
1!
#952
b10 %
0!
#953
b11 %
1!
#954
b100 %
0!
#955
b101 %
1!
#956
b110 %
0!
#957
b111 %
1!
#958
b1000 %
0!
#959
b1001 %
1!
#960
b110 $
b0 %
0!
#961
b1 %
1!
#962
b10 %
0!
#963
b11 %
1!
#964
b100 %
0!
#965
b101 %
1!
#966
b110 %
0!
#967
b111 %
1!
#968
b1000 %
0!
#969
b1001 %
1!
#970
b111 $
b0 %
0!
#971
b1 %
1!
#972
b10 %
0!
#973
b11 %
1!
#974
b100 %
0!
#975
b101 %
1!
#976
b110 %
0!
#977
b111 %
1!
#978
b1000 %
0!
#979
b1001 %
1!
#980
b1000 $
b0 %
0!
#981
b1 %
1!
#982
b10 %
0!
#983
b11 %
1!
#984
b100 %
0!
#985
b101 %
1!
#986
b110 %
0!
#987
b111 %
1!
#988
b1000 %
0!
#989
b1001 %
1!
#990
b1001 $
b0 %
0!
#991
b1 %
1!
#992
b10 %
0!
#993
b11 %
1!
#994
b100 %
0!
#995
b101 %
1!
#996
b110 %
0!
#997
b111 %
1!
#998
b1000 %
0!
#999
b1001 %
1!
#1000
b1 "
b0 #
b0 $
b0 %
0!
#1001
b1 %
1!
#1002
b10 %
0!
#1003
b11 %
1!
#1004
b100 %
0!
#1005
b101 %
1!
#1006
b110 %
0!
#1007
b111 %
1!
#1008
b1000 %
0!
#1009
b1001 %
1!
#1010
b1 $
b0 %
0!
#1011
b1 %
1!
#1012
b10 %
0!
#1013
b11 %
1!
#1014
b100 %
0!
#1015
b101 %
1!
#1016
b110 %
0!
#1017
b111 %
1!
#1018
b1000 %
0!
#1019
b1001 %
1!
#1020
b10 $
b0 %
0!
#1021
b1 %
1!
#1022
b10 %
0!
#1023
b11 %
1!
#1024
b100 %
0!
#1025
b101 %
1!
#1026
b110 %
0!
#1027
b111 %
1!
#1028
b1000 %
0!
#1029
b1001 %
1!
#1030
b11 $
b0 %
0!
#1031
b1 %
1!
#1032
b10 %
0!
#1033
b11 %
1!
#1034
b100 %
0!
#1035
b101 %
1!
#1036
b110 %
0!
#1037
b111 %
1!
#1038
b1000 %
0!
#1039
b1001 %
1!
#1040
b100 $
b0 %
0!
#1041
b1 %
1!
#1042
b10 %
0!
#1043
b11 %
1!
#1044
b100 %
0!
#1045
b101 %
1!
#1046
b110 %
0!
#1047
b111 %
1!
#1048
b1000 %
0!
#1049
b1001 %
1!
#1050
b101 $
b0 %
0!
#1051
b1 %
1!
#1052
b10 %
0!
#1053
b11 %
1!
#1054
b100 %
0!
#1055
b101 %
1!
#1056
b110 %
0!
#1057
b111 %
1!
#1058
b1000 %
0!
#1059
b1001 %
1!
#1060
b110 $
b0 %
0!
#1061
b1 %
1!
#1062
b10 %
0!
#1063
b11 %
1!
#1064
b100 %
0!
#1065
b101 %
1!
#1066
b110 %
0!
#1067
b111 %
1!
#1068
b1000 %
0!
#1069
b1001 %
1!
#1070
b111 $
b0 %
0!
#1071
b1 %
1!
#1072
b10 %
0!
#1073
b11 %
1!
#1074
b100 %
0!
#1075
b101 %
1!
#1076
b110 %
0!
#1077
b111 %
1!
#1078
b1000 %
0!
#1079
b1001 %
1!
#1080
b1000 $
b0 %
0!
#1081
b1 %
1!
#1082
b10 %
0!
#1083
b11 %
1!
#1084
b100 %
0!
#1085
b101 %
1!
#1086
b110 %
0!
#1087
b111 %
1!
#1088
b1000 %
0!
#1089
b1001 %
1!
#1090
b1001 $
b0 %
0!
#1091
b1 %
1!
#1092
b10 %
0!
#1093
b11 %
1!
#1094
b100 %
0!
#1095
b101 %
1!
#1096
b110 %
0!
#1097
b111 %
1!
#1098
b1000 %
0!
#1099
b1001 %
1!
#1100
b1 #
b0 $
b0 %
0!
#1101
b1 %
1!
#1102
b10 %
0!
#1103
b11 %
1!
#1104
b100 %
0!
#1105
b101 %
1!
#1106
b110 %
0!
#1107
b111 %
1!
#1108
b1000 %
0!
#1109
b1001 %
1!
#1110
b1 $
b0 %
0!
#1111
b1 %
1!
#1112
b10 %
0!
#1113
b11 %
1!
#1114
b100 %
0!
#1115
b101 %
1!
#1116
b110 %
0!
#1117
b111 %
1!
#1118
b1000 %
0!
#1119
b1001 %
1!
#1120
b10 $
b0 %
0!
#1121
b1 %
1!
#1122
b10 %
0!
#1123
b11 %
1!
#1124
b100 %
0!
#1125
b101 %
1!
#1126
b110 %
0!
#1127
b111 %
1!
#1128
b1000 %
0!
#1129
b1001 %
1!
#1130
b11 $
b0 %
0!
#1131
b1 %
1!
#1132
b10 %
0!
#1133
b11 %
1!
#1134
b100 %
0!
#1135
b101 %
1!
#1136
b110 %
0!
#1137
b111 %
1!
#1138
b1000 %
0!
#1139
b1001 %
1!
#1140
b100 $
b0 %
0!
#1141
b1 %
1!
#1142
b10 %
0!
#1143
b11 %
1!
#1144
b100 %
0!
#1145
b101 %
1!
#1146
b110 %
0!
#1147
b111 %
1!
#1148
b1000 %
0!
#1149
b1001 %
1!
#1150
b101 $
b0 %
0!
#1151
b1 %
1!
#1152
b10 %
0!
#1153
b11 %
1!
#1154
b100 %
0!
#1155
b101 %
1!
#1156
b110 %
0!
#1157
b111 %
1!
#1158
b1000 %
0!
#1159
b1001 %
1!
#1160
b110 $
b0 %
0!
#1161
b1 %
1!
#1162
b10 %
0!
#1163
b11 %
1!
#1164
b100 %
0!
#1165
b101 %
1!
#1166
b110 %
0!
#1167
b111 %
1!
#1168
b1000 %
0!
#1169
b1001 %
1!
#1170
b111 $
b0 %
0!
#1171
b1 %
1!
#1172
b10 %
0!
#1173
b11 %
1!
#1174
b100 %
0!
#1175
b101 %
1!
#1176
b110 %
0!
#1177
b111 %
1!
#1178
b1000 %
0!
#1179
b1001 %
1!
#1180
b1000 $
b0 %
0!
#1181
b1 %
1!
#1182
b10 %
0!
#1183
b11 %
1!
#1184
b100 %
0!
#1185
b101 %
1!
#1186
b110 %
0!
#1187
b111 %
1!
#1188
b1000 %
0!
#1189
b1001 %
1!
#1190
b1001 $
b0 %
0!
#1191
b1 %
1!
#1192
b10 %
0!
#1193
b11 %
1!
#1194
b100 %
0!
#1195
b101 %
1!
#1196
b110 %
0!
#1197
b111 %
1!
#1198
b1000 %
0!
#1199
b1001 %
1!
#1200
b10 #
b0 $
b0 %
0!
#1201
b1 %
1!
#1202
b10 %
0!
#1203
b11 %
1!
#1204
b100 %
0!
#1205
b101 %
1!
#1206
b110 %
0!
#1207
b111 %
1!
#1208
b1000 %
0!
#1209
b1001 %
1!
#1210
b1 $
b0 %
0!
#1211
b1 %
1!
#1212
b10 %
0!
#1213
b11 %
1!
