DigitalCircuit2/IdeaB.vcd
$date
	Thu Jun 11 15:25:57 2020
$end
$version
	Icarus Verilog
$end
$timescale
	1s
$end
$scope module Runner $end
$var reg 1 ! RST $end
$upscope $end
$scope module Runner $end
$var reg 1 " CLK $end
$upscope $end
$scope module Runner $end
$var reg 1 # CE $end
$upscope $end
$scope module Runner $end
$var wire 4 $ result [3:0] $end
$upscope $end
$scope module Runner $end
$var wire 4 % result_logic [3:0] $end
$upscope $end
$scope module Runner $end
$var wire 4 & result_switching [3:0] $end
$upscope $end
$enddefinitions $end
#0
$dumpvars
b0 &
b1111 %
b0 $
0#
0"
0!
$end
#1
1"
#2
b1111 &
1#
0"
#3
1"
#4
b0 &
0#
0"
#5
1"
#6
0"
#7
1"
#8
b1111 &
1#
0"
#9
1"
#10
b0 &
1!
0#
0"
#11
1"
#12
0"
#13
1"
#14
b1111 &
1#
0"
#15
b1110 &
b1110 %
b1111 $
1"
#16
b1111 &
0#
0"
#17
1"
#18
0"
#19
1"
#20
b1110 &
1#
0"
#21
b1101 &
b1101 %
b1110 $
1"
#22
b1110 &
0#
0"
#23
1"
#24
0"
#25
1"
#26
b1101 &
1#
0"
#27
b1100 &
b1100 %
b1101 $
1"
#28
b1101 &
0#
0"
#29
1"
#30
0"
#31
1"
#32
b1100 &
1#
0"
#33
b1011 &
b1011 %
b1100 $
1"
#34
b1100 &
0#
0"
#35
1"
#36
0"
#37
1"
#38
b1011 &
1#
0"
#39
b1010 &
b1010 %
b1011 $
1"
#40
b1011 &
0#
0"
#41
1"
#42
0"
#43
1"
#44
b1010 &
1#
0"
#45
b1001 &
b1001 %
b1010 $
1"
#46
b1010 &
0#
0"
#47
1"
#48
0"
#49
1"
#50
b1001 &
1#
0"
#51
b1000 &
b1000 %
b1001 $
1"
#52
b1001 &
0#
0"
#53
1"
#54
0"
#55
1"
#56
b1000 &
1#
0"
#57
b111 &
b111 %
b1000 $
1"
#58
b1000 &
0#
0"
#59
1"
#60
0"
#61
1"
#62
b111 &
1#
0"
#63
b110 &
b110 %
b111 $
1"
#64
b111 &
0#
0"
#65
1"
#66
0"
#67
1"
#68
b110 &
1#
0"
#69
b101 &
b101 %
b110 $
1"
#70
b110 &
0#
0"
#71
1"
#72
0"
#73
1"
#74
b101 &
1#
0"
#75
b1110 &
b1110 %
b101 $
1"
#76
b101 &
0#
0"
#77
1"
#78
0"
#79
1"
#80
b1110 &
1#
0"
#81
b1101 &
b1101 %
b1110 $
1"
#82
b1110 &
0#
0"
#83
1"
#84
0"
#85
1"
#86
b1101 &
1#
0"
#87
b1100 &
b1100 %
b1101 $
1"
#88
b1101 &
0#
0"
#89
1"
#90
0"
#91
1"
#92
b1100 &
1#
0"
#93
b1011 &
b1011 %
b1100 $
1"
#94
b1100 &
0#
0"
#95
1"
#96
0"
#97
1"
#98
b1011 &
1#
0"
#99
b1010 &
b1010 %
b1011 $
1"
#100
b1011 &
0#
0"
#101
1"
#102
0"
#103
1"
#104
b1010 &
1#
0"
#105
b1001 &
b1001 %
b1010 $
1"
#106
b1010 &
0#
0"
#107
1"
#108
0"
#109
1"
#110
b1111 %
b1111 &
b0 $
0!
1#
0"
#111
1"
#112
b0 &
0#
0"
#113
1"
#114
0"
#115
1"
#116
b1111 &
1#
0"
#117
1"
#118
b0 &
0#
0"
